{
  "orgName": "Enxoo - Recipe Development DEV",
  "edition": "Developer",
  "country": "IE",
  "features": ["MultiCurrency","Communities","PlatformCache"],
  "settings": {
      "lightningExperienceSettings": {
          "enableS1DesktopEnabled": true
      },
      "chatterSettings": {
          "enableChatter": true
      },
      "languageSettings": {
          "enableTranslationWorkbench": true,
          "enableEndUserLanguages": true,
          "enablePlatformLanguages": true
      },
      "quoteSettings": {
          "enableQuote": true
      },
      "communitiesSettings": {
          "enableNetworksEnabled": true,
          "enableOotbProfExtUserOpsEnable": true
      }
  }
}